{
  "files": {
    "main.css": "/static/css/main.cefc6c5d.css",
    "main.js": "/static/js/main.f4ddadb5.js",
    "static/js/787.1baccff4.chunk.js": "/static/js/787.1baccff4.chunk.js",
    "static/media/profile1.1.png": "/static/media/profile1.1.01843ad1b8c095ed0020.png",
    "static/media/profile3.1.png": "/static/media/profile3.1.87b834d87aab8f86425a.png",
    "index.html": "/index.html",
    "main.cefc6c5d.css.map": "/static/css/main.cefc6c5d.css.map",
    "main.f4ddadb5.js.map": "/static/js/main.f4ddadb5.js.map",
    "787.1baccff4.chunk.js.map": "/static/js/787.1baccff4.chunk.js.map"
  },
  "entrypoints": [
    "static/css/main.cefc6c5d.css",
    "static/js/main.f4ddadb5.js"
  ]
}